<?xml version="1.0" encoding="utf-8"?>
<!-- Generator: Adobe Illustrator 21.0.2, SVG Export Plug-In . SVG Version: 6.00 Build 0)  -->
<svg version="1.1" id="Layer_1" xmlns="http://www.w3.org/2000/svg" xmlns:xlink="http://www.w3.org/1999/xlink" x="0px" y="0px"
	 width="595.3px" height="595.3px" viewBox="0 0 595.3 595.3" enable-background="new 0 0 595.3 595.3" xml:space="preserve">
<g>
	<circle fill="#0083CA" cx="296.3" cy="192.7" r="175"/>
	<path fill="#0083CA" d="M422.5,362c-36.4,22.4-79.1,35.5-124.9,35.5s-88.5-13.1-124.9-35.5C89.7,400.1,31.3,474.9,25.1,562.3
		c-0.6,8.2,5.7,15.4,14,15.4h517.1c8.3,0,14.6-7.1,14-15.4C564,474.9,505.6,400.1,422.5,362z"/>
</g>
</svg>
